3 Transformation und Analyse mit dplyr | Kurzeinführung zu R und der Datenanalyse mit dem tidyverse
…
library(tidyverse)

load("stammdaten.RData")

Die Datei enthielt das Objekt stammdaten, eine Tibble, der die ausgewählten
Stammdaten aller jetzigen und ehemaligen Bundestagsabgeordneten enthält. Schauen
wir uns die Tibble einmal an:

stammdaten
## # A tibble: 4,089 × 9
##    nachname  vorname   Titel   geschlecht Partei erste_WP letzte_WP alter geb   
##    <chr>     <chr>     <chr>   <chr>      <chr>     <int>     <int> <int> <chr> 
##  1 Abelein   Manfred   Prof. … männlich   CDU           5        11    86 20.10…
##  2 Achenbach Ernst     Dr.     männlich   FDP           3         7   108 09.04…
##  3 Ackermann Annemarie <NA>    weiblich   CDU           2         4   104 26.05…
##  4 Ackermann Else      Dr.     weiblich   CDU          11        12    83 06.11…
##  5 Adam      Ulrich    <NA>    männlich   CDU          12        16    67 09.06…
##  6 Adams     Rudolf    <NA>    männlich   SPD           5         8    97 10.11…
##  7 Adelmann  Raban     <NA>    männlich   CDU           3         3   104 28.09…
##  8 Adenauer  Konrad    Dr.     männlich   CDU           1         5   141 05.01…
##  9 Adler     Brigitte  <NA>    weiblich   SPD          11        14    73 22.06…
## 10 Adorno    Eduard    <NA>    männlich   CDU           4         6    96 31.10…
## # … with 4,079 more rows
…
Wie Sie sehen, werden bei Tibbles standardmäßig nur die ersten 10 Zeilen
gedruckt. Die Darstellung ist dadurch kompakt und übersichtlich. Eventuell
könnten wir aber daran interessiert sein mehr als 10 Zeilen zu sehen. Ein Weg
ist das Anklicken des Objekts im “Environment” Tab oder das Schreiben von
View(objektname) in der console. Nun öffnet sich das Objekt in einem neuen Tab
und kann komplett betrachtet werden. Ein anderer Weg ist es, R zu zwingen mehr
Zeilen in die console abzudrucken. Dies ist mit der Funktion print() möglich.
Als zweites Argument können wir mit n = angeben, wie viele Zeilen wir sehen
möchten.

print(stammdaten, n = 20)
## # A tibble: 4,089 × 9
##    nachname  vorname   Titel   geschlecht Partei erste_WP letzte_WP alter geb   
##    <chr>     <chr>     <chr>   <chr>      <chr>     <int>     <int> <int> <chr> 
##  1 Abelein   Manfred   Prof. … männlich   CDU           5        11    86 20.10…
##  2 Achenbach Ernst     Dr.     männlich   FDP           3         7   108 09.04…
##  3 Ackermann Annemarie <NA>    weiblich   CDU           2         4   104 26.05…
##  4 Ackermann Else      Dr.     weiblich   CDU          11        12    83 06.11…
##  5 Adam      Ulrich    <NA>    männlich   CDU          12        16    67 09.06…
##  6 Adams     Rudolf    <NA>    männlich   SPD           5         8    97 10.11…
##  7 Adelmann  Raban     <NA>    männlich   CDU           3         3   104 28.09…
##  8 Adenauer  Konrad    Dr.     männlich   CDU           1         5   141 05.01…
##  9 Adler     Brigitte  <NA>    weiblich   SPD          11        14    73 22.06…
## 10 Adorno    Eduard    <NA>    männlich   CDU           4         6    96 31.10…
## 11 Aerssen   Jochen    Dr.     männlich   CDU           8         9    76 15.04…
## 12 Agatz     Willi     <NA>    männlich   KPD           1         1   113 10.06…
## 13 Ahlers    Conrad    <NA>    männlich   SPD           7         8    94 08.11…
## 14 Ahrens    Adolf     <NA>    männlich   DP            1         1   138 17.09…
## 15 Ahrens    Hermann   <NA>    männlich   SPD           5         5   115 08.04…
## 16 Ahrens    Karl      Dr.     männlich   SPD           6        11    93 13.03…
## 17 Aigner    Heinrich  Dr.     männlich   CSU           3         8    93 25.05…
## 18 Alber     Siegbert  Prof. … männlich   CDU           6         8    81 27.07…
## 19 Albers    Johannes  <NA>    männlich   CDU           1         2   127 08.03…
## 20 Albertz   Luise     <NA>    weiblich   SPD           1         5   116 22.06…
## # … with 4,069 more rows
…
Zum Schreiben der Ausdrücke benötigen wir die in Kapitel 1.2.4
bereits eingeführten Vergleichsoperatoren. Diese vergleichen den Wert auf der
linken Seite des Operators mit dem auf der rechten und geben als Ergebnis ein
TRUE zurück, wenn der Test bestanden wurde, beziehungsweise FALSE, wenn er
nicht bestanden wurde.

Wir könnten nun beispielsweise daran interessiert sein, nur die Daten bestimmter
Parteien zu analysieren. Filtern wir zunächst die Stammdaten der
CDU-Abgeordneten heraus. Wir können dazu in filter() testen, ob der Wert der
Spalte “Partei” gleich dem Wert “CDU” ist. Bitte denken Sie daran, dass wir zum
Vergleich zweier Werte immer == schreiben müssen, nicht =.

stammdaten %>% 
  filter(Partei == "CDU")
## # A tibble: 1,347 × 9
##    nachname  vorname   Titel   geschlecht Partei erste_WP letzte_WP alter geb   
##    <chr>     <chr>     <chr>   <chr>      <chr>     <int>     <int> <int> <chr> 
##  1 Abelein   Manfred   Prof. … männlich   CDU           5        11    86 20.10…
##  2 Ackermann Annemarie <NA>    weiblich   CDU           2         4   104 26.05…
##  3 Ackermann Else      Dr.     weiblich   CDU          11        12    83 06.11…
##  4 Adam      Ulrich    <NA>    männlich   CDU          12        16    67 09.06…
##  5 Adelmann  Raban     <NA>    männlich   CDU           3         3   104 28.09…
##  6 Adenauer  Konrad    Dr.     männlich   CDU           1         5   141 05.01…
##  7 Adorno    Eduard    <NA>    männlich   CDU           4         6    96 31.10…
##  8 Aerssen   Jochen    Dr.     männlich   CDU           8         9    76 15.04…
##  9 Alber     Siegbert  Prof. … männlich   CDU           6         8    81 27.07…
## 10 Albers    Johannes  <NA>    männlich   CDU           1         2   127 08.03…
## # … with 1,337 more rows
…
TRUE & TRUE gibt TRUE zurück

TRUE & FALSE, FALSE & TRUE und FALSE & FALSE geben alle FALSE zurück

TRUE | TRUE, TRUE | FALSE und FALSE | TRUE geben alle TRUE zurück

FALSE | FALSE gibt FALSE zurück

Möchten wir nun beispielsweise alle CDU-Mitglieder des 19. Bundestags filtern,
können wir dazu den & Operator einsetzen:

stammdaten %>% 
  filter(Partei == "CDU" & letzte_WP == 19)
## # A tibble: 201 × 9
##    nachname vorname      Titel geschlecht Partei erste_WP letzte_WP alter geb   
##    <chr>    <chr>        <chr> <chr>      <chr>     <int>     <int> <int> <chr> 
##  1 Bleser   Peter        <NA>  männlich   CDU          12        19    65 23.07…
##  2 Fuchtel  Hans-Joachim <NA>  männlich   CDU          11        19    65 13.02…
##  3 Kauder   Volker       <NA>  männlich   CDU          12        19    68 03.09…
##  4 Landgraf Katharina    <NA>  weiblich   CDU          11        19    63 24.02…
##  5 Merkel   Angela       Dr.   weiblich   CDU          12        19    63 17.07…
##  6 Schäuble Wolfgang     Dr.   männlich   CDU           7        19    75 18.09…
##  7 Stübgen  Michael      <NA>  männlich   CDU          12        19    57 17.10…
##  8 Altmaier Peter        <NA>  männlich   CDU          13        19    59 18.06…
##  9 Gröhe    Hermann      <NA>  männlich   CDU          13        19    56 25.02…
## 10 Grund    Manfred      <NA>  männlich   CDU          13        19    62 03.07…
## # … with 191 more rows

Statt mit & können wir in filter() Ausdrücke auch mit , verbinden. Das |
lässt sich aber nicht auf ähnlichem Weg ersetzen. Möchten wir Unionsmitglieder
filtern, also CDU- oder CSU-Mitglieder, können wir dies mit | realisieren:

stammdaten %>% 
  filter(Partei == "CDU" | Partei == "CSU")
## # A tibble: 1,616 × 9
##    nachname  vorname   Titel   geschlecht Partei erste_WP letzte_WP alter geb   
##    <chr>     <chr>     <chr>   <chr>      <chr>     <int>     <int> <int> <chr> 
##  1 Abelein   Manfred   Prof. … männlich   CDU           5        11    86 20.10…
##  2 Ackermann Annemarie <NA>    weiblich   CDU           2         4   104 26.05…
##  3 Ackermann Else      Dr.     weiblich   CDU          11        12    83 06.11…
##  4 Adam      Ulrich    <NA>    männlich   CDU          12        16    67 09.06…
##  5 Adelmann  Raban     <NA>    männlich   CDU           3         3   104 28.09…
##  6 Adenauer  Konrad    Dr.     männlich   CDU           1         5   141 05.01…
##  7 Adorno    Eduard    <NA>    männlich   CDU           4         6    96 31.10…
##  8 Aerssen   Jochen    Dr.     männlich   CDU           8         9    76 15.04…
##  9 Aigner    Heinrich  Dr.     männlich   CSU           3         8    93 25.05…
## 10 Alber     Siegbert  Prof. … männlich   CDU           6         8    81 27.07…
## # … with 1,606 more rows

Es lassen sich auch mehr als zwei Ausdrücke mit &und | kombinieren.

stammdaten %>% 
  filter(Partei == "CDU" | Partei == "CSU" | Partei == "FDP" | Partei == "AfD")
## # A tibble: 2,164 × 9
##    nachname  vorname   Titel   geschlecht Partei erste_WP letzte_WP alter geb   
##    <chr>     <chr>     <chr>   <chr>      <chr>     <int>     <int> <int> <chr> 
##  1 Abelein   Manfred   Prof. … männlich   CDU           5        11    86 20.10…
##  2 Achenbach Ernst     Dr.     männlich   FDP           3         7   108 09.04…
##  3 Ackermann Annemarie <NA>    weiblich   CDU           2         4   104 26.05…
##  4 Ackermann Else      Dr.     weiblich   CDU          11        12    83 06.11…
##  5 Adam      Ulrich    <NA>    männlich   CDU          12        16    67 09.06…
##  6 Adelmann  Raban     <NA>    männlich   CDU           3         3   104 28.09…
##  7 Adenauer  Konrad    Dr.     männlich   CDU           1         5   141 05.01…
##  8 Adorno    Eduard    <NA>    männlich   CDU           4         6    96 31.10…
##  9 Aerssen   Jochen    Dr.     männlich   CDU           8         9    76 15.04…
## 10 Aigner    Heinrich  Dr.     männlich   CSU           3         8    93 25.05…
## # … with 2,154 more rows
…
Ab hier arbeiten wir mit dem Objekt stammdaten_19 weiter.

3.2.2 select()

Möchten wir ein Subset von Variablen bilden, könne wir dazu select() nutzen.
Die Funktion nimmt die Daten, auf die sie angewendet werden soll, als erstes
Argument – hier weitergegeben durch die Pipe – und dann einen oder mehrere
Spaltennamen, die in der Tibble verbleiben sollen. Folgen die zu behaltenden
Spalten aufeinander, können wir auch eine “von:bis” Notation nutzen. Nehmen wir
an, wir möchten die Spalten “nachname”, “vorname”, “Titel” und “Partei”
extrahieren:

stammdaten_19 %>% 
  select(nachname, vorname, Titel, Partei)
## # A tibble: 732 × 4
##    nachname vorname      Titel Partei    
##    <chr>    <chr>        <chr> <chr>     
##  1 Bleser   Peter        <NA>  CDU       
##  2 Brecht   Eberhard     Dr.   SPD       
##  3 Dehm     Diether      Dr.   DIE LINKE.
##  4 Fuchtel  Hans-Joachim <NA>  CDU       
##  5 Gysi     Gregor       Dr.   DIE LINKE.
##  6 Jelpke   Ulla         <NA>  DIE LINKE.
##  7 Kauder   Volker       <NA>  CDU       
##  8 Kubicki  Wolfgang     <NA>  FDP       
##  9 Landgraf Katharina    <NA>  CDU       
## 10 Matschie Christoph    <NA>  SPD       
## # … with 722 more rows

stammdaten_19 %>% 
  select(nachname:Titel, Partei)
## # A tibble: 732 × 4
##    nachname vorname      Titel Partei    
##    <chr>    <chr>        <chr> <chr>     
##  1 Bleser   Peter        <NA>  CDU       
##  2 Brecht   Eberhard     Dr.   SPD       
##  3 Dehm     Diether      Dr.   DIE LINKE.
##  4 Fuchtel  Hans-Joachim <NA>  CDU       
##  5 Gysi     Gregor       Dr.   DIE LINKE.
##  6 Jelpke   Ulla         <NA>  DIE LINKE.
##  7 Kauder   Volker       <NA>  CDU       
##  8 Kubicki  Wolfgang     <NA>  FDP       
##  9 Landgraf Katharina    <NA>  CDU       
## 10 Matschie Christoph    <NA>  SPD       
## # … with 722 more rows

Wir können select()auch nutzen, um Variablen zu entfernen. Dazu schreiben wir
- vor den zu entfernenden Spaltennamen. Da das genaue Geburtsdatum der
Abgeordneten im Folgenden nicht mehr benötigt wird, können wir die Spalte “geb”
entfernen. “letzte_WP” kann ebenfalls entfernt werden, da die Spalte nach dem
Filtern keine Informationen mehr enthält. Ihr Wert ist für alle Beobachtungen
19.

stammdaten_19 <- stammdaten_19 %>% 
  select(-c(geb, letzte_WP))

stammdaten_19
## # A tibble: 732 × 7
##    nachname vorname      Titel geschlecht Partei     erste_WP alter
##    <chr>    <chr>        <chr> <chr>      <chr>         <int> <int>
##  1 Bleser   Peter        <NA>  männlich   CDU              12    65
##  2 Brecht   Eberhard     Dr.   männlich   SPD              12    67
##  3 Dehm     Diether      Dr.   männlich   DIE LINKE.       12    67
##  4 Fuchtel  Hans-Joachim <NA>  männlich   CDU              11    65
##  5 Gysi     Gregor       Dr.   männlich   DIE LINKE.       11    69
##  6 Jelpke   Ulla         <NA>  weiblich   DIE LINKE.       12    66
##  7 Kauder   Volker       <NA>  männlich   CDU              12    68
##  8 Kubicki  Wolfgang     <NA>  männlich   FDP              12    65
##  9 Landgraf Katharina    <NA>  weiblich   CDU              11    63
## 10 Matschie Christoph    <NA>  männlich   SPD              12    56
## # … with 722 more rows
…
Ihnen wird eventuell bereits aufgefallen sein, dass die meisten Spaltennamen mit
einem kleingeschriebenen Buchstaben beginnen, “Titel” und “Partei” aber nicht.
Da habe ich anscheinend beim Erstellen des Datenobjekts meine eigenen
Namenskonventionen – alles beginnt mit kleinen Buchstaben – außer Acht
gelassen. Um diese nun umzubenennen, können wir rename() nutzen. Erneut werden
als erstes Argument die Daten durch die Pipe weitergegeben, gefolgt von einem
oder mehreren Argumenten in der Form neuer_name = alter_name.

stammdaten_19 <- stammdaten_19 %>% 
  rename(titel = Titel,
         partei = Partei)

stammdaten_19
## # A tibble: 732 × 7
##    nachname vorname      titel geschlecht partei     erste_WP alter
##    <chr>    <chr>        <chr> <chr>      <chr>         <int> <int>
##  1 Bleser   Peter        <NA>  männlich   CDU              12    65
##  2 Brecht   Eberhard     Dr.   männlich   SPD              12    67
##  3 Dehm     Diether      Dr.   männlich   DIE LINKE.       12    67
##  4 Fuchtel  Hans-Joachim <NA>  männlich   CDU              11    65
##  5 Gysi     Gregor       Dr.   männlich   DIE LINKE.       11    69
##  6 Jelpke   Ulla         <NA>  weiblich   DIE LINKE.       12    66
##  7 Kauder   Volker       <NA>  männlich   CDU              12    68
##  8 Kubicki  Wolfgang     <NA>  männlich   FDP              12    65
##  9 Landgraf Katharina    <NA>  weiblich   CDU              11    63
## 10 Matschie Christoph    <NA>  männlich   SPD              12    56
## # … with 722 more rows
…
stammdaten_19 <- stammdaten_19 %>% 
  mutate(name = str_c(nachname, vorname, sep = ", "))

stammdaten_19 %>% 
  select(nachname, vorname, name)
## # A tibble: 732 × 3
##    nachname vorname      name                 
##    <chr>    <chr>        <chr>                
##  1 Bleser   Peter        Bleser, Peter        
##  2 Brecht   Eberhard     Brecht, Eberhard     
##  3 Dehm     Diether      Dehm, Diether        
##  4 Fuchtel  Hans-Joachim Fuchtel, Hans-Joachim
##  5 Gysi     Gregor       Gysi, Gregor         
##  6 Jelpke   Ulla         Jelpke, Ulla         
##  7 Kauder   Volker       Kauder, Volker       
##  8 Kubicki  Wolfgang     Kubicki, Wolfgang    
##  9 Landgraf Katharina    Landgraf, Katharina  
## 10 Matschie Christoph    Matschie, Christoph  
## # … with 722 more rows
…
stammdaten_19 <- stammdaten_19 %>% 
  mutate(titel_dummy = if_else(!is.na(titel), TRUE, FALSE))

stammdaten_19 %>% 
  select(titel, titel_dummy)
## # A tibble: 732 × 2
##    titel titel_dummy
##    <chr> <lgl>      
##  1 <NA>  FALSE      
##  2 Dr.   TRUE       
##  3 Dr.   TRUE       
##  4 <NA>  FALSE      
##  5 Dr.   TRUE       
##  6 <NA>  FALSE      
##  7 <NA>  FALSE      
##  8 <NA>  FALSE      
##  9 <NA>  FALSE      
## 10 <NA>  FALSE      
## # … with 722 more rows
…
Damit sind die Daten zur weiteren Analyse vorbereitet. Wir können nun noch nicht
mehr benötigte Spalten entfernen, um die Tibble übersichtlich zu halten, sowie
die dann noch vorhandenen Spalten in eine sinnvollere Reihenfolge bringen.
Beides ist nicht zwingend notwendig, führt aber zu einem aufgeräumteren Output
der Tibble.

Die Spalten “nachname”, “vorname” und “titel” sind nicht mehr notwendig, da wir
die enthaltenen Informationen in neue Variablen überführt haben.

stammdaten_19 <- stammdaten_19 %>% 
  select(-c(nachname:titel))

stammdaten_19
## # A tibble: 732 × 6
##    geschlecht partei     erste_WP alter name                  titel_dummy
##    <fct>      <fct>         <int> <int> <chr>                 <lgl>      
##  1 männlich   Union            12    65 Bleser, Peter         FALSE      
##  2 männlich   SPD              12    67 Brecht, Eberhard      TRUE       
##  3 männlich   DIE LINKE.       12    67 Dehm, Diether         TRUE       
##  4 männlich   Union            11    65 Fuchtel, Hans-Joachim FALSE      
##  5 männlich   DIE LINKE.       11    69 Gysi, Gregor          TRUE       
##  6 weiblich   DIE LINKE.       12    66 Jelpke, Ulla          FALSE      
##  7 männlich   Union            12    68 Kauder, Volker        FALSE      
##  8 männlich   FDP              12    65 Kubicki, Wolfgang     FALSE      
##  9 weiblich   Union            11    63 Landgraf, Katharina   FALSE      
## 10 männlich   SPD              12    56 Matschie, Christoph   FALSE      
## # … with 722 more rows

Was eine sinnvolle Reihenfolge der verbleibenden Variablen sein kann ist
natürlich subjektiv. Ich würde aber folgende Reihenfolge vorschlagen und mit
relocate() umsetzen. Die Syntax funktioniert dabei ähnllich zu select().

stammdaten_19 <- stammdaten_19 %>% 
  relocate(name, titel_dummy, partei, geschlecht, alter, erste_WP)

stammdaten_19
## # A tibble: 732 × 6
##    name                  titel_dummy partei     geschlecht alter erste_WP
##    <chr>                 <lgl>       <fct>      <fct>      <int>    <int>
##  1 Bleser, Peter         FALSE       Union      männlich      65       12
##  2 Brecht, Eberhard      TRUE        SPD        männlich      67       12
##  3 Dehm, Diether         TRUE        DIE LINKE. männlich      67       12
##  4 Fuchtel, Hans-Joachim FALSE       Union      männlich      65       11
##  5 Gysi, Gregor          TRUE        DIE LINKE. männlich      69       11
##  6 Jelpke, Ulla          FALSE       DIE LINKE. weiblich      66       12
##  7 Kauder, Volker        FALSE       Union      männlich      68       12
##  8 Kubicki, Wolfgang     FALSE       FDP        männlich      65       12
##  9 Landgraf, Katharina   FALSE       Union      weiblich      63       11
## 10 Matschie, Christoph   FALSE       SPD        männlich      56       12
## # … with 722 more rows
…
